…
``` r
classe_recipe <- recipe(classe ~ ., 
                      data = classe_train %>% 
            select(classe, xco2:lst_amp) 
) %>%  
  # step_normalize(all_numeric_predictors())  %>% 
#  step_naomit() %>%  
  step_novel(all_nominal_predictors()) %>% 
  step_zv(all_predictors()) %>%
 # step_naomit(c(ts, us)) %>% 
  #step_impute_median(where(is.numeric)) %>% # inputação da mediana nos numéricos
  # step_poly(c(Us,Ts), degree = 2)  %>%  
  step_dummy(all_nominal_predictors())
bake(prep(classe_recipe), new_data = NULL)
#> # A tibble: 3,196 × 6
#>     xco2   sif  ndvi   lai lst_amp classe
#>    <dbl> <dbl> <dbl> <dbl>   <dbl> <fct> 
#>  1  403. 0.8   0.507  1.85    5.83 Con   
#>  2  398. 0.912 0.866  3.4     5.78 Con   
#>  3  401. 1.15  0.512  1.12    0.92 Con   
#>  4  407. 0.393 0.722  2.22    3.26 Con   
#>  5  402. 1.25  0.764  3.9     3.94 Con   
#>  6  399. 1.16  0.46   1.62    2.52 Con   
#>  7  403. 0.891 0.748  2.88    4.36 Con   
#>  8  402. 1.07  0.547  3.4     7.84 Con   
#>  9  404. 1.49  0.832  4.23    6.71 Con   
#> 10  404. 0.81  0.797  4.47    4.61 Con   
#> # ℹ 3,186 more rows
```
…
